{
    "input": {
        "type_": "standardization"
    },
    "sinc": {
        "nr_filters": 122,
        "filter_size": 31,
        "stride": 1
    },
    "conv1": {
        "nr_filters": 512,
        "kernel_size": 9
    },
    "residual": [3, 2, 1, 1]
}
